^C:\USERS\DAVID\DOCUMENTS\VISUAL STUDIO 2010\PROJECTS\LABEL MAKER\LABEL MAKER\FORM1.RESX|C:\USERS\DAVID\DOCUMENTS\VISUAL STUDIO 2010\PROJECTS\LABEL MAKER\LABEL MAKER\PROPERTIES\RESOURCES.RESX
C:\USERS\DAVID\DOCUMENTS\VISUAL STUDIO 2010\PROJECTS\LABEL MAKER\LABEL MAKER\OBJ\X86\DEBUG\LABEL_MAKER.FORM1.RESOURCES
C:\USERS\DAVID\DOCUMENTS\VISUAL STUDIO 2010\PROJECTS\LABEL MAKER\LABEL MAKER\OBJ\X86\DEBUG\LABEL_MAKER.PROPERTIES.RESOURCES.RESOURCES
